<svg width="30" height="30" viewBox="0 0 30 30" fill="none" xmlns="http://www.w3.org/2000/svg">
<circle cx="15" cy="12" r="6" fill="#3898CD"/>
<path d="M15 18C9.4 18 5.33333 22.3333 4 24.5C5.5 26.1667 9.8 29.5 15 29.5C20.2 29.5 24.8333 26.1667 26.5 24.5C25 22.3333 20.6 18 15 18Z" fill="#3898CD"/>
<circle cx="15" cy="15" r="14.5" stroke="#3898CD"/>
</svg>
