<svg width="16" height="16" viewBox="0 0 16 16" fill="none" xmlns="http://www.w3.org/2000/svg">
<path d="M15.332 9.15824C15.3917 8.78049 15.4231 8.39403 15.4231 7.99957C15.4231 3.89972 12.0997 0.576393 7.99978 0.576393C7.60637 0.576393 7.21879 0.608793 6.84138 0.667828C6.1577 0.244804 5.35079 0 4.48603 0C2.00864 0 0.000244141 2.00813 0.000244141 4.48579C0.000244141 5.35036 0.245197 6.1566 0.668035 6.84165C0.609521 7.22004 0.577307 7.60527 0.577307 7.99972C0.577307 12.0999 3.90064 15.4222 7.99963 15.4222C8.39338 15.4222 8.78106 15.3918 9.15844 15.3323C9.84282 15.7545 10.6491 16 11.5136 16C13.9917 16 15.9999 13.9913 15.9999 11.5137C16.0001 10.6488 15.7553 9.84277 15.332 9.15824ZM11.5242 11.3757C11.2102 11.8278 10.7489 12.1811 10.1461 12.4351C9.54215 12.6898 8.82827 12.8165 8.00387 12.8165C7.0158 12.8165 6.19773 12.6436 5.552 12.2945C5.09427 12.0445 4.72198 11.7091 4.43578 11.2909C4.14897 10.8723 4.00356 10.4624 4.00356 10.0628C4.00356 9.82699 4.09347 9.62196 4.26849 9.45479C4.44534 9.28639 4.6731 9.20198 4.94194 9.20198C5.16215 9.20198 5.35131 9.26831 5.50531 9.39973C5.65816 9.53112 5.78638 9.72213 5.89125 9.97419C6.01694 10.2662 6.15346 10.5103 6.29872 10.7051C6.44309 10.8974 6.64627 11.058 6.90941 11.1837C7.16965 11.3097 7.51601 11.3727 7.94941 11.3727C8.54254 11.3727 9.02189 11.2444 9.38874 10.9914C9.75745 10.7359 9.93456 10.4252 9.93456 10.0497C9.93456 9.75022 9.83907 9.51237 9.64325 9.32693C9.44565 9.13908 9.19047 8.99601 8.8738 8.89621C8.5559 8.79536 8.12908 8.68842 7.5942 8.57574C6.87597 8.41899 6.27529 8.23653 5.78884 8.02699C5.30176 7.81667 4.91385 7.52916 4.62634 7.16599C4.33824 6.79925 4.19458 6.34341 4.19458 5.80351C4.19458 5.28868 4.34624 4.82828 4.64985 4.42757C4.95332 4.02575 5.39238 3.71819 5.96486 3.50397C6.53534 3.28981 7.20696 3.18268 7.97638 3.18268C8.59168 3.18268 9.12392 3.25388 9.57444 3.39553C10.0237 3.53823 10.3982 3.72653 10.6977 3.96281C10.9952 4.19858 11.2142 4.44725 11.3529 4.7082C11.4914 4.96993 11.5612 5.22556 11.5612 5.47501C11.5612 5.70694 11.4713 5.9173 11.2961 6.10166C11.1209 6.28628 10.8968 6.38039 10.6352 6.37953C10.3992 6.37953 10.2142 6.32511 10.0858 6.20991C9.96086 6.09846 9.82958 5.92102 9.68759 5.67373C9.50811 5.32867 9.29314 5.05984 9.04316 4.86756C8.79977 4.67885 8.39821 4.58061 7.83945 4.5818C7.32247 4.5818 6.90882 4.68744 6.59661 4.89404C6.28247 5.10395 6.13229 5.34749 6.13159 5.63284C6.13211 5.81166 6.18352 5.96243 6.28697 6.09136C6.39202 6.22148 6.53817 6.33423 6.72602 6.42927C6.91395 6.5258 7.10511 6.60046 7.29721 6.65417C7.49157 6.70926 7.81405 6.78891 8.26229 6.89436C8.82444 7.01552 9.33432 7.15089 9.79249 7.29842C10.2498 7.44669 10.64 7.6255 10.9624 7.83854C11.2874 8.05094 11.5414 8.32175 11.7227 8.64884C11.9053 8.97645 11.9963 9.37659 11.9963 9.84746C11.997 10.4144 11.839 10.9244 11.5242 11.3757Z" fill="black"/>
</svg>
