<svg width="15" height="11" viewBox="0 0 15 11" fill="none" xmlns="http://www.w3.org/2000/svg">
<path d="M10.3177 0.0448447L10.1922 0.0446352L7.52473 5.27158L4.76132 0L0.977787 9.52326H0V10.2881H5.35666V9.52326H4.2938L5.35666 6.54694L7.52473 10.2881L9.60792 6.54694L10.6706 9.52326H9.60792V10.2881H14.9218V9.52326H14.0013L10.3177 0.0448447Z" fill="#FAFF00"/>
</svg>
